%YAML 1.1
%TAG !u! tag:unity3d.com,2011:
--- !u!74 &7400000
AnimationClip:
  m_ObjectHideFlags: 0
  m_CorrespondingSourceObject: {fileID: 0}
  m_PrefabInstance: {fileID: 0}
  m_PrefabAsset: {fileID: 0}
  m_Name: AttackDownLeft
  serializedVersion: 6
  m_Legacy: 0
  m_Compressed: 0
  m_UseHighQualityCurve: 1
  m_RotationCurves: []
  m_CompressedRotationCurves: []
  m_EulerCurves: []
  m_PositionCurves: []
  m_ScaleCurves: []
  m_FloatCurves: []
  m_PPtrCurves:
  - curve:
    - time: 0
      value: {fileID: -4108562349825192723, guid: 9a0afa859739ae44a8090a1937de361f,
        type: 3}
    - time: 0.016666668
      value: {fileID: 4338630008314158699, guid: 9a0afa859739ae44a8090a1937de361f,
        type: 3}
    - time: 0.033333335
      value: {fileID: 6977747276945929514, guid: 9a0afa859739ae44a8090a1937de361f,
        type: 3}
    - time: 0.05
      value: {fileID: -5957808506094886726, guid: 9a0afa859739ae44a8090a1937de361f,
        type: 3}
    - time: 0.06666667
      value: {fileID: 6508403535336465044, guid: 9a0afa859739ae44a8090a1937de361f,
        type: 3}
    - time: 0.083333336
      value: {fileID: 1200672332038331413, guid: 9a0afa859739ae44a8090a1937de361f,
        type: 3}
    - time: 0.1
      value: {fileID: -3205445107065883880, guid: 9a0afa859739ae44a8090a1937de361f,
        type: 3}
    - time: 0.11666667
      value: {fileID: -5789733246450471119, guid: 9a0afa859739ae44a8090a1937de361f,
        type: 3}
    - time: 0.13333334
      value: {fileID: 3110351061079780654, guid: 9a0afa859739ae44a8090a1937de361f,
        type: 3}
    - time: 0.15
      value: {fileID: 1491691814532318227, guid: 9a0afa859739ae44a8090a1937de361f,
        type: 3}
    - time: 0.16666667
      value: {fileID: -8242874049459699193, guid: 9a0afa859739ae44a8090a1937de361f,
        type: 3}
    - time: 0.18333334
      value: {fileID: -8587880843558426449, guid: 9a0afa859739ae44a8090a1937de361f,
        type: 3}
    - time: 0.2
      value: {fileID: 7734550363767759209, guid: 9a0afa859739ae44a8090a1937de361f,
        type: 3}
    - time: 0.21666667
      value: {fileID: 2564742267242747797, guid: 9a0afa859739ae44a8090a1937de361f,
        type: 3}
    - time: 0.23333333
      value: {fileID: 5456023155379089185, guid: 9a0afa859739ae44a8090a1937de361f,
        type: 3}
    - time: 0.25
      value: {fileID: -5401803027170634786, guid: 9a0afa859739ae44a8090a1937de361f,
        type: 3}
    - time: 0.26666668
      value: {fileID: -1766695023684557307, guid: 9a0afa859739ae44a8090a1937de361f,
        type: 3}
    - time: 0.28333333
      value: {fileID: 3002788885306971958, guid: 9a0afa859739ae44a8090a1937de361f,
        type: 3}
    - time: 0.3
      value: {fileID: -2036071723921704041, guid: 9a0afa859739ae44a8090a1937de361f,
        type: 3}
    - time: 0.31666666
      value: {fileID: -7131980609134334488, guid: 9a0afa859739ae44a8090a1937de361f,
        type: 3}
    - time: 0.33333334
      value: {fileID: 4866007732708446038, guid: 9a0afa859739ae44a8090a1937de361f,
        type: 3}
    - time: 0.35
      value: {fileID: 5473434067413854794, guid: 9a0afa859739ae44a8090a1937de361f,
        type: 3}
    - time: 0.36666667
      value: {fileID: 2216161513836766808, guid: 9a0afa859739ae44a8090a1937de361f,
        type: 3}
    - time: 0.38333333
      value: {fileID: 1908714657526107250, guid: 9a0afa859739ae44a8090a1937de361f,
        type: 3}
    attribute: m_Sprite
    path: 
    classID: 212
    script: {fileID: 0}
  m_SampleRate: 60
  m_WrapMode: 0
  m_Bounds:
    m_Center: {x: 0, y: 0, z: 0}
    m_Extent: {x: 0, y: 0, z: 0}
  m_ClipBindingConstant:
    genericBindings:
    - serializedVersion: 2
      path: 0
      attribute: 0
      script: {fileID: 0}
      typeID: 212
      customType: 23
      isPPtrCurve: 1
    pptrCurveMapping:
    - {fileID: -4108562349825192723, guid: 9a0afa859739ae44a8090a1937de361f, type: 3}
    - {fileID: 4338630008314158699, guid: 9a0afa859739ae44a8090a1937de361f, type: 3}
    - {fileID: 6977747276945929514, guid: 9a0afa859739ae44a8090a1937de361f, type: 3}
    - {fileID: -5957808506094886726, guid: 9a0afa859739ae44a8090a1937de361f, type: 3}
    - {fileID: 6508403535336465044, guid: 9a0afa859739ae44a8090a1937de361f, type: 3}
    - {fileID: 1200672332038331413, guid: 9a0afa859739ae44a8090a1937de361f, type: 3}
    - {fileID: -3205445107065883880, guid: 9a0afa859739ae44a8090a1937de361f, type: 3}
    - {fileID: -5789733246450471119, guid: 9a0afa859739ae44a8090a1937de361f, type: 3}
    - {fileID: 3110351061079780654, guid: 9a0afa859739ae44a8090a1937de361f, type: 3}
    - {fileID: 1491691814532318227, guid: 9a0afa859739ae44a8090a1937de361f, type: 3}
    - {fileID: -8242874049459699193, guid: 9a0afa859739ae44a8090a1937de361f, type: 3}
    - {fileID: -8587880843558426449, guid: 9a0afa859739ae44a8090a1937de361f, type: 3}
    - {fileID: 7734550363767759209, guid: 9a0afa859739ae44a8090a1937de361f, type: 3}
    - {fileID: 2564742267242747797, guid: 9a0afa859739ae44a8090a1937de361f, type: 3}
    - {fileID: 5456023155379089185, guid: 9a0afa859739ae44a8090a1937de361f, type: 3}
    - {fileID: -5401803027170634786, guid: 9a0afa859739ae44a8090a1937de361f, type: 3}
    - {fileID: -1766695023684557307, guid: 9a0afa859739ae44a8090a1937de361f, type: 3}
    - {fileID: 3002788885306971958, guid: 9a0afa859739ae44a8090a1937de361f, type: 3}
    - {fileID: -2036071723921704041, guid: 9a0afa859739ae44a8090a1937de361f, type: 3}
    - {fileID: -7131980609134334488, guid: 9a0afa859739ae44a8090a1937de361f, type: 3}
    - {fileID: 4866007732708446038, guid: 9a0afa859739ae44a8090a1937de361f, type: 3}
    - {fileID: 5473434067413854794, guid: 9a0afa859739ae44a8090a1937de361f, type: 3}
    - {fileID: 2216161513836766808, guid: 9a0afa859739ae44a8090a1937de361f, type: 3}
    - {fileID: 1908714657526107250, guid: 9a0afa859739ae44a8090a1937de361f, type: 3}
  m_AnimationClipSettings:
    serializedVersion: 2
    m_AdditiveReferencePoseClip: {fileID: 0}
    m_AdditiveReferencePoseTime: 0
    m_StartTime: 0
    m_StopTime: 0.4
    m_OrientationOffsetY: 0
    m_Level: 0
    m_CycleOffset: 0
    m_HasAdditiveReferencePose: 0
    m_LoopTime: 0
    m_LoopBlend: 0
    m_LoopBlendOrientation: 0
    m_LoopBlendPositionY: 0
    m_LoopBlendPositionXZ: 0
    m_KeepOriginalOrientation: 0
    m_KeepOriginalPositionY: 1
    m_KeepOriginalPositionXZ: 0
    m_HeightFromFeet: 0
    m_Mirror: 0
  m_EditorCurves: []
  m_EulerEditorCurves: []
  m_HasGenericRootTransform: 0
  m_HasMotionFloatCurves: 0
  m_Events: []
