%YAML 1.1
%TAG !u! tag:unity3d.com,2011:
--- !u!74 &7400000
AnimationClip:
  m_ObjectHideFlags: 0
  m_CorrespondingSourceObject: {fileID: 0}
  m_PrefabInstance: {fileID: 0}
  m_PrefabAsset: {fileID: 0}
  m_Name: WalkUpRight
  serializedVersion: 6
  m_Legacy: 0
  m_Compressed: 0
  m_UseHighQualityCurve: 1
  m_RotationCurves: []
  m_CompressedRotationCurves: []
  m_EulerCurves: []
  m_PositionCurves: []
  m_ScaleCurves: []
  m_FloatCurves: []
  m_PPtrCurves:
  - curve:
    - time: 0
      value: {fileID: 4924226500162507080, guid: c68bf20d76660a542827118ef3497afe,
        type: 3}
    - time: 0.016666668
      value: {fileID: 2372033274398879880, guid: c68bf20d76660a542827118ef3497afe,
        type: 3}
    - time: 0.033333335
      value: {fileID: -5969053560337598172, guid: c68bf20d76660a542827118ef3497afe,
        type: 3}
    - time: 0.05
      value: {fileID: 6969649520202116949, guid: c68bf20d76660a542827118ef3497afe,
        type: 3}
    - time: 0.06666667
      value: {fileID: -5514307947426454623, guid: c68bf20d76660a542827118ef3497afe,
        type: 3}
    - time: 0.083333336
      value: {fileID: 2636266649055183929, guid: c68bf20d76660a542827118ef3497afe,
        type: 3}
    - time: 0.1
      value: {fileID: 4960822651706529731, guid: c68bf20d76660a542827118ef3497afe,
        type: 3}
    - time: 0.11666667
      value: {fileID: -5653373283798418586, guid: c68bf20d76660a542827118ef3497afe,
        type: 3}
    - time: 0.13333334
      value: {fileID: 6443037047179387359, guid: c68bf20d76660a542827118ef3497afe,
        type: 3}
    - time: 0.15
      value: {fileID: -6861541477614612705, guid: c68bf20d76660a542827118ef3497afe,
        type: 3}
    - time: 0.16666667
      value: {fileID: 2575891089666204705, guid: c68bf20d76660a542827118ef3497afe,
        type: 3}
    - time: 0.18333334
      value: {fileID: 4778074867843425127, guid: c68bf20d76660a542827118ef3497afe,
        type: 3}
    - time: 0.2
      value: {fileID: 1990923060621517575, guid: c68bf20d76660a542827118ef3497afe,
        type: 3}
    - time: 0.21666667
      value: {fileID: 5407302293106272349, guid: c68bf20d76660a542827118ef3497afe,
        type: 3}
    - time: 0.23333333
      value: {fileID: -334910599086392648, guid: c68bf20d76660a542827118ef3497afe,
        type: 3}
    - time: 0.25
      value: {fileID: -1832435651846024204, guid: c68bf20d76660a542827118ef3497afe,
        type: 3}
    - time: 0.26666668
      value: {fileID: -8498747655758695825, guid: c68bf20d76660a542827118ef3497afe,
        type: 3}
    - time: 0.28333333
      value: {fileID: -5872525924728501327, guid: c68bf20d76660a542827118ef3497afe,
        type: 3}
    attribute: m_Sprite
    path: 
    classID: 212
    script: {fileID: 0}
  m_SampleRate: 60
  m_WrapMode: 0
  m_Bounds:
    m_Center: {x: 0, y: 0, z: 0}
    m_Extent: {x: 0, y: 0, z: 0}
  m_ClipBindingConstant:
    genericBindings:
    - serializedVersion: 2
      path: 0
      attribute: 0
      script: {fileID: 0}
      typeID: 212
      customType: 23
      isPPtrCurve: 1
    pptrCurveMapping:
    - {fileID: 4924226500162507080, guid: c68bf20d76660a542827118ef3497afe, type: 3}
    - {fileID: 2372033274398879880, guid: c68bf20d76660a542827118ef3497afe, type: 3}
    - {fileID: -5969053560337598172, guid: c68bf20d76660a542827118ef3497afe, type: 3}
    - {fileID: 6969649520202116949, guid: c68bf20d76660a542827118ef3497afe, type: 3}
    - {fileID: -5514307947426454623, guid: c68bf20d76660a542827118ef3497afe, type: 3}
    - {fileID: 2636266649055183929, guid: c68bf20d76660a542827118ef3497afe, type: 3}
    - {fileID: 4960822651706529731, guid: c68bf20d76660a542827118ef3497afe, type: 3}
    - {fileID: -5653373283798418586, guid: c68bf20d76660a542827118ef3497afe, type: 3}
    - {fileID: 6443037047179387359, guid: c68bf20d76660a542827118ef3497afe, type: 3}
    - {fileID: -6861541477614612705, guid: c68bf20d76660a542827118ef3497afe, type: 3}
    - {fileID: 2575891089666204705, guid: c68bf20d76660a542827118ef3497afe, type: 3}
    - {fileID: 4778074867843425127, guid: c68bf20d76660a542827118ef3497afe, type: 3}
    - {fileID: 1990923060621517575, guid: c68bf20d76660a542827118ef3497afe, type: 3}
    - {fileID: 5407302293106272349, guid: c68bf20d76660a542827118ef3497afe, type: 3}
    - {fileID: -334910599086392648, guid: c68bf20d76660a542827118ef3497afe, type: 3}
    - {fileID: -1832435651846024204, guid: c68bf20d76660a542827118ef3497afe, type: 3}
    - {fileID: -8498747655758695825, guid: c68bf20d76660a542827118ef3497afe, type: 3}
    - {fileID: -5872525924728501327, guid: c68bf20d76660a542827118ef3497afe, type: 3}
  m_AnimationClipSettings:
    serializedVersion: 2
    m_AdditiveReferencePoseClip: {fileID: 0}
    m_AdditiveReferencePoseTime: 0
    m_StartTime: 0
    m_StopTime: 0.3
    m_OrientationOffsetY: 0
    m_Level: 0
    m_CycleOffset: 0
    m_HasAdditiveReferencePose: 0
    m_LoopTime: 1
    m_LoopBlend: 0
    m_LoopBlendOrientation: 0
    m_LoopBlendPositionY: 0
    m_LoopBlendPositionXZ: 0
    m_KeepOriginalOrientation: 0
    m_KeepOriginalPositionY: 1
    m_KeepOriginalPositionXZ: 0
    m_HeightFromFeet: 0
    m_Mirror: 0
  m_EditorCurves: []
  m_EulerEditorCurves: []
  m_HasGenericRootTransform: 0
  m_HasMotionFloatCurves: 0
  m_Events: []
