%YAML 1.1
%TAG !u! tag:unity3d.com,2011:
--- !u!74 &7400000
AnimationClip:
  m_ObjectHideFlags: 0
  m_CorrespondingSourceObject: {fileID: 0}
  m_PrefabInstance: {fileID: 0}
  m_PrefabAsset: {fileID: 0}
  m_Name: Enemy1IdleSE
  serializedVersion: 6
  m_Legacy: 0
  m_Compressed: 0
  m_UseHighQualityCurve: 1
  m_RotationCurves: []
  m_CompressedRotationCurves: []
  m_EulerCurves: []
  m_PositionCurves: []
  m_ScaleCurves: []
  m_FloatCurves: []
  m_PPtrCurves:
  - curve:
    - time: 0
      value: {fileID: 6709971661903650691, guid: 8a116db25bd0ae34eb480ab058d24a37,
        type: 3}
    - time: 0.083333336
      value: {fileID: -2943923032334756463, guid: 8a116db25bd0ae34eb480ab058d24a37,
        type: 3}
    - time: 0.18333334
      value: {fileID: 9082503021211909259, guid: 8a116db25bd0ae34eb480ab058d24a37,
        type: 3}
    - time: 0.26666668
      value: {fileID: 207706949320323809, guid: 8a116db25bd0ae34eb480ab058d24a37,
        type: 3}
    - time: 0.36666667
      value: {fileID: -1967694963972182842, guid: 8a116db25bd0ae34eb480ab058d24a37,
        type: 3}
    - time: 0.45
      value: {fileID: -9092333960918953151, guid: 8a116db25bd0ae34eb480ab058d24a37,
        type: 3}
    - time: 0.55
      value: {fileID: 6387941165214781756, guid: 8a116db25bd0ae34eb480ab058d24a37,
        type: 3}
    - time: 0.6333333
      value: {fileID: 3355333194911254239, guid: 8a116db25bd0ae34eb480ab058d24a37,
        type: 3}
    - time: 0.73333335
      value: {fileID: 2536774853024627041, guid: 8a116db25bd0ae34eb480ab058d24a37,
        type: 3}
    - time: 0.81666666
      value: {fileID: 8692513343988781034, guid: 8a116db25bd0ae34eb480ab058d24a37,
        type: 3}
    - time: 0.9166667
      value: {fileID: -8629733550808463120, guid: 8a116db25bd0ae34eb480ab058d24a37,
        type: 3}
    - time: 1
      value: {fileID: 800980007751438927, guid: 8a116db25bd0ae34eb480ab058d24a37,
        type: 3}
    attribute: m_Sprite
    path: 
    classID: 212
    script: {fileID: 0}
  m_SampleRate: 60
  m_WrapMode: 0
  m_Bounds:
    m_Center: {x: 0, y: 0, z: 0}
    m_Extent: {x: 0, y: 0, z: 0}
  m_ClipBindingConstant:
    genericBindings:
    - serializedVersion: 2
      path: 0
      attribute: 0
      script: {fileID: 0}
      typeID: 212
      customType: 23
      isPPtrCurve: 1
    pptrCurveMapping:
    - {fileID: 6709971661903650691, guid: 8a116db25bd0ae34eb480ab058d24a37, type: 3}
    - {fileID: -2943923032334756463, guid: 8a116db25bd0ae34eb480ab058d24a37, type: 3}
    - {fileID: 9082503021211909259, guid: 8a116db25bd0ae34eb480ab058d24a37, type: 3}
    - {fileID: 207706949320323809, guid: 8a116db25bd0ae34eb480ab058d24a37, type: 3}
    - {fileID: -1967694963972182842, guid: 8a116db25bd0ae34eb480ab058d24a37, type: 3}
    - {fileID: -9092333960918953151, guid: 8a116db25bd0ae34eb480ab058d24a37, type: 3}
    - {fileID: 6387941165214781756, guid: 8a116db25bd0ae34eb480ab058d24a37, type: 3}
    - {fileID: 3355333194911254239, guid: 8a116db25bd0ae34eb480ab058d24a37, type: 3}
    - {fileID: 2536774853024627041, guid: 8a116db25bd0ae34eb480ab058d24a37, type: 3}
    - {fileID: 8692513343988781034, guid: 8a116db25bd0ae34eb480ab058d24a37, type: 3}
    - {fileID: -8629733550808463120, guid: 8a116db25bd0ae34eb480ab058d24a37, type: 3}
    - {fileID: 800980007751438927, guid: 8a116db25bd0ae34eb480ab058d24a37, type: 3}
  m_AnimationClipSettings:
    serializedVersion: 2
    m_AdditiveReferencePoseClip: {fileID: 0}
    m_AdditiveReferencePoseTime: 0
    m_StartTime: 0
    m_StopTime: 1.0166667
    m_OrientationOffsetY: 0
    m_Level: 0
    m_CycleOffset: 0
    m_HasAdditiveReferencePose: 0
    m_LoopTime: 1
    m_LoopBlend: 0
    m_LoopBlendOrientation: 0
    m_LoopBlendPositionY: 0
    m_LoopBlendPositionXZ: 0
    m_KeepOriginalOrientation: 0
    m_KeepOriginalPositionY: 1
    m_KeepOriginalPositionXZ: 0
    m_HeightFromFeet: 0
    m_Mirror: 0
  m_EditorCurves: []
  m_EulerEditorCurves: []
  m_HasGenericRootTransform: 0
  m_HasMotionFloatCurves: 0
  m_Events: []
