%YAML 1.1
%TAG !u! tag:unity3d.com,2011:
--- !u!74 &7400000
AnimationClip:
  m_ObjectHideFlags: 0
  m_CorrespondingSourceObject: {fileID: 0}
  m_PrefabInstance: {fileID: 0}
  m_PrefabAsset: {fileID: 0}
  m_Name: Enemy1AttackSE
  serializedVersion: 6
  m_Legacy: 0
  m_Compressed: 0
  m_UseHighQualityCurve: 1
  m_RotationCurves: []
  m_CompressedRotationCurves: []
  m_EulerCurves: []
  m_PositionCurves: []
  m_ScaleCurves: []
  m_FloatCurves: []
  m_PPtrCurves:
  - curve:
    - time: 0
      value: {fileID: 3879154316092056880, guid: 8a116db25bd0ae34eb480ab058d24a37,
        type: 3}
    - time: 0.05
      value: {fileID: -73789847929468423, guid: 8a116db25bd0ae34eb480ab058d24a37,
        type: 3}
    - time: 0.083333336
      value: {fileID: 8972865857543440945, guid: 8a116db25bd0ae34eb480ab058d24a37,
        type: 3}
    - time: 0.13333334
      value: {fileID: -688049658963481829, guid: 8a116db25bd0ae34eb480ab058d24a37,
        type: 3}
    - time: 0.16666667
      value: {fileID: -7821945962538779869, guid: 8a116db25bd0ae34eb480ab058d24a37,
        type: 3}
    - time: 0.21666667
      value: {fileID: 8254863737239351545, guid: 8a116db25bd0ae34eb480ab058d24a37,
        type: 3}
    - time: 0.26666668
      value: {fileID: 6433511510427429728, guid: 8a116db25bd0ae34eb480ab058d24a37,
        type: 3}
    - time: 0.3
      value: {fileID: -558755743291453681, guid: 8a116db25bd0ae34eb480ab058d24a37,
        type: 3}
    - time: 0.35
      value: {fileID: -8756960419044468235, guid: 8a116db25bd0ae34eb480ab058d24a37,
        type: 3}
    - time: 0.38333333
      value: {fileID: -1345837310867153671, guid: 8a116db25bd0ae34eb480ab058d24a37,
        type: 3}
    - time: 0.43333334
      value: {fileID: -4191184575746914274, guid: 8a116db25bd0ae34eb480ab058d24a37,
        type: 3}
    - time: 0.48333332
      value: {fileID: -2021441110437258472, guid: 8a116db25bd0ae34eb480ab058d24a37,
        type: 3}
    - time: 0.51666665
      value: {fileID: -6796416204082248252, guid: 8a116db25bd0ae34eb480ab058d24a37,
        type: 3}
    - time: 0.56666666
      value: {fileID: 2027251083651786279, guid: 8a116db25bd0ae34eb480ab058d24a37,
        type: 3}
    - time: 0.6166667
      value: {fileID: -8510909651535463893, guid: 8a116db25bd0ae34eb480ab058d24a37,
        type: 3}
    - time: 0.65
      value: {fileID: -1803897935939774298, guid: 8a116db25bd0ae34eb480ab058d24a37,
        type: 3}
    - time: 0.7
      value: {fileID: -779534840751831355, guid: 8a116db25bd0ae34eb480ab058d24a37,
        type: 3}
    - time: 0.73333335
      value: {fileID: 6197923839032878374, guid: 8a116db25bd0ae34eb480ab058d24a37,
        type: 3}
    - time: 0.78333336
      value: {fileID: -5035519145876314977, guid: 8a116db25bd0ae34eb480ab058d24a37,
        type: 3}
    - time: 0.8333333
      value: {fileID: 6030285370846830609, guid: 8a116db25bd0ae34eb480ab058d24a37,
        type: 3}
    - time: 0.8666667
      value: {fileID: -6660422791297944217, guid: 8a116db25bd0ae34eb480ab058d24a37,
        type: 3}
    - time: 0.9166667
      value: {fileID: 1988149942902870157, guid: 8a116db25bd0ae34eb480ab058d24a37,
        type: 3}
    - time: 0.95
      value: {fileID: 6813837059014518210, guid: 8a116db25bd0ae34eb480ab058d24a37,
        type: 3}
    - time: 1
      value: {fileID: 3884236147660193411, guid: 8a116db25bd0ae34eb480ab058d24a37,
        type: 3}
    attribute: m_Sprite
    path: 
    classID: 212
    script: {fileID: 0}
  m_SampleRate: 60
  m_WrapMode: 0
  m_Bounds:
    m_Center: {x: 0, y: 0, z: 0}
    m_Extent: {x: 0, y: 0, z: 0}
  m_ClipBindingConstant:
    genericBindings:
    - serializedVersion: 2
      path: 0
      attribute: 0
      script: {fileID: 0}
      typeID: 212
      customType: 23
      isPPtrCurve: 1
    pptrCurveMapping:
    - {fileID: 3879154316092056880, guid: 8a116db25bd0ae34eb480ab058d24a37, type: 3}
    - {fileID: -73789847929468423, guid: 8a116db25bd0ae34eb480ab058d24a37, type: 3}
    - {fileID: 8972865857543440945, guid: 8a116db25bd0ae34eb480ab058d24a37, type: 3}
    - {fileID: -688049658963481829, guid: 8a116db25bd0ae34eb480ab058d24a37, type: 3}
    - {fileID: -7821945962538779869, guid: 8a116db25bd0ae34eb480ab058d24a37, type: 3}
    - {fileID: 8254863737239351545, guid: 8a116db25bd0ae34eb480ab058d24a37, type: 3}
    - {fileID: 6433511510427429728, guid: 8a116db25bd0ae34eb480ab058d24a37, type: 3}
    - {fileID: -558755743291453681, guid: 8a116db25bd0ae34eb480ab058d24a37, type: 3}
    - {fileID: -8756960419044468235, guid: 8a116db25bd0ae34eb480ab058d24a37, type: 3}
    - {fileID: -1345837310867153671, guid: 8a116db25bd0ae34eb480ab058d24a37, type: 3}
    - {fileID: -4191184575746914274, guid: 8a116db25bd0ae34eb480ab058d24a37, type: 3}
    - {fileID: -2021441110437258472, guid: 8a116db25bd0ae34eb480ab058d24a37, type: 3}
    - {fileID: -6796416204082248252, guid: 8a116db25bd0ae34eb480ab058d24a37, type: 3}
    - {fileID: 2027251083651786279, guid: 8a116db25bd0ae34eb480ab058d24a37, type: 3}
    - {fileID: -8510909651535463893, guid: 8a116db25bd0ae34eb480ab058d24a37, type: 3}
    - {fileID: -1803897935939774298, guid: 8a116db25bd0ae34eb480ab058d24a37, type: 3}
    - {fileID: -779534840751831355, guid: 8a116db25bd0ae34eb480ab058d24a37, type: 3}
    - {fileID: 6197923839032878374, guid: 8a116db25bd0ae34eb480ab058d24a37, type: 3}
    - {fileID: -5035519145876314977, guid: 8a116db25bd0ae34eb480ab058d24a37, type: 3}
    - {fileID: 6030285370846830609, guid: 8a116db25bd0ae34eb480ab058d24a37, type: 3}
    - {fileID: -6660422791297944217, guid: 8a116db25bd0ae34eb480ab058d24a37, type: 3}
    - {fileID: 1988149942902870157, guid: 8a116db25bd0ae34eb480ab058d24a37, type: 3}
    - {fileID: 6813837059014518210, guid: 8a116db25bd0ae34eb480ab058d24a37, type: 3}
    - {fileID: 3884236147660193411, guid: 8a116db25bd0ae34eb480ab058d24a37, type: 3}
  m_AnimationClipSettings:
    serializedVersion: 2
    m_AdditiveReferencePoseClip: {fileID: 0}
    m_AdditiveReferencePoseTime: 0
    m_StartTime: 0
    m_StopTime: 1.0166667
    m_OrientationOffsetY: 0
    m_Level: 0
    m_CycleOffset: 0
    m_HasAdditiveReferencePose: 0
    m_LoopTime: 1
    m_LoopBlend: 0
    m_LoopBlendOrientation: 0
    m_LoopBlendPositionY: 0
    m_LoopBlendPositionXZ: 0
    m_KeepOriginalOrientation: 0
    m_KeepOriginalPositionY: 1
    m_KeepOriginalPositionXZ: 0
    m_HeightFromFeet: 0
    m_Mirror: 0
  m_EditorCurves: []
  m_EulerEditorCurves: []
  m_HasGenericRootTransform: 0
  m_HasMotionFloatCurves: 0
  m_Events: []
